{
  "lumbung": [
    {
      "nama": "Depok (UI)",
      "alamat": "kambing.ui.ac.id"
    },
    {
      "nama": "Telkom (FOSS-ID)",
      "alamat": "dl2.foss-id.web.id"
    },
    {
      "nama": "Bogor (IPB)",
      "alamat": "pandawa.ipb.ac.id"
    },
    {
      "nama": "IndikaNet",
      "alamat": "ubuntu.indika.net.id"
    },
    {
      "nama": "Yogyakarta (UGM)",
      "alamat": "repo.ugm.ac.id"
    },
    {
      "nama": "Semarang (UNDIP)",
      "alamat": "jaran.undip.ac.id"
    },
    {
      "nama": "Padinet (KOMO)",
      "alamat": "komo.padinet.com"
    },
    {
      "nama": "Jember (UNEJ)",
      "alamat": "mirror.unej.ac.id"
    },
    {
      "nama": "Surabaya (KLAS)",
      "alamat": "buaya.klas.or.id"
    },
    {
      "nama": "Surabaya (ITS)",
      "alamat": "kebo.vlsm.org"
    },
    {
      "nama": "Surabaya (DU)",
      "alamat": "kartolo.sby.datautama.net.id"
    }
  ]
}